<?xml version="1.0" encoding="UTF-8"?>
<svg xmlns="http://www.w3.org/2000/svg" xmlns:xlink="http://www.w3.org/1999/xlink" width="1275pt" height="229pt" viewBox="0 0 1275 229" version="1.1">
<defs>
<g>
<symbol overflow="visible" id="glyph0-0">
<path style="stroke:none;" d=""/>
</symbol>
<symbol overflow="visible" id="glyph0-1">
<path style="stroke:none;" d="M 2.796875 0 L 11.640625 0 C 17.421875 0 20.984375 -4.34375 20.984375 -11.484375 C 20.984375 -18.59375 17.453125 -22.921875 11.640625 -22.921875 L 2.796875 -22.921875 Z M 5.71875 -2.578125 L 5.71875 -20.34375 L 11.140625 -20.34375 C 15.65625 -20.34375 18.046875 -17.296875 18.046875 -11.453125 C 18.046875 -5.65625 15.65625 -2.578125 11.140625 -2.578125 Z M 5.71875 -2.578125 "/>
</symbol>
<symbol overflow="visible" id="glyph0-2">
<path style="stroke:none;" d="M 16.828125 -1.546875 C 16.546875 -1.484375 16.421875 -1.484375 16.265625 -1.484375 C 15.34375 -1.484375 14.84375 -1.953125 14.84375 -2.765625 L 14.84375 -12.453125 C 14.84375 -15.375 12.703125 -16.953125 8.65625 -16.953125 C 6.265625 -16.953125 4.28125 -16.265625 3.171875 -15.03125 C 2.421875 -14.1875 2.109375 -13.234375 2.046875 -11.609375 L 4.6875 -11.609375 C 4.90625 -13.625 6.109375 -14.53125 8.5625 -14.53125 C 10.921875 -14.53125 12.234375 -13.65625 12.234375 -12.078125 L 12.234375 -11.390625 C 12.234375 -10.28125 11.578125 -9.8125 9.5 -9.5625 C 5.78125 -9.09375 5.21875 -8.96875 4.21875 -8.5625 C 2.296875 -7.765625 1.328125 -6.296875 1.328125 -4.15625 C 1.328125 -1.15625 3.390625 0.71875 6.734375 0.71875 C 8.8125 0.71875 10.46875 0 12.328125 -1.703125 C 12.515625 -0.03125 13.34375 0.71875 15.03125 0.71875 C 15.5625 0.71875 15.984375 0.65625 16.828125 0.4375 Z M 12.234375 -5.1875 C 12.234375 -4.3125 11.984375 -3.78125 11.203125 -3.046875 C 10.125 -2.078125 8.84375 -1.578125 7.296875 -1.578125 C 5.25 -1.578125 4.0625 -2.546875 4.0625 -4.21875 C 4.0625 -5.9375 5.21875 -6.828125 8.015625 -7.234375 C 10.78125 -7.609375 11.359375 -7.734375 12.234375 -8.140625 Z M 12.234375 -5.1875 "/>
</symbol>
<symbol overflow="visible" id="glyph0-3">
<path style="stroke:none;" d="M 7.984375 -16.484375 L 5.28125 -16.484375 L 5.28125 -21.015625 L 2.671875 -21.015625 L 2.671875 -16.484375 L 0.4375 -16.484375 L 0.4375 -14.34375 L 2.671875 -14.34375 L 2.671875 -1.890625 C 2.671875 -0.21875 3.8125 0.71875 5.84375 0.71875 C 6.484375 0.71875 7.109375 0.65625 7.984375 0.5 L 7.984375 -1.703125 C 7.640625 -1.609375 7.234375 -1.578125 6.734375 -1.578125 C 5.59375 -1.578125 5.28125 -1.890625 5.28125 -3.046875 L 5.28125 -14.34375 L 7.984375 -14.34375 Z M 7.984375 -16.484375 "/>
</symbol>
<symbol overflow="visible" id="glyph0-4">
<path style="stroke:none;" d="M 8.109375 -16.484375 L 5.375 -16.484375 L 5.375 -19.0625 C 5.375 -20.15625 6 -20.734375 7.203125 -20.734375 C 7.421875 -20.734375 7.515625 -20.734375 8.109375 -20.703125 L 8.109375 -22.859375 C 7.515625 -23 7.171875 -23.03125 6.640625 -23.03125 C 4.21875 -23.03125 2.765625 -21.640625 2.765625 -19.28125 L 2.765625 -16.484375 L 0.5625 -16.484375 L 0.5625 -14.34375 L 2.765625 -14.34375 L 2.765625 0 L 5.375 0 L 5.375 -14.34375 L 8.109375 -14.34375 Z M 8.109375 -16.484375 "/>
</symbol>
<symbol overflow="visible" id="glyph0-5">
<path style="stroke:none;" d="M 2.171875 -16.484375 L 2.171875 0 L 4.8125 0 L 4.8125 -8.5625 C 4.8125 -10.921875 5.40625 -12.453125 6.671875 -13.375 C 7.484375 -13.96875 8.265625 -14.15625 10.09375 -14.1875 L 10.09375 -16.859375 C 9.65625 -16.921875 9.4375 -16.953125 9.09375 -16.953125 C 7.390625 -16.953125 6.109375 -15.953125 4.59375 -13.5 L 4.59375 -16.484375 Z M 2.171875 -16.484375 "/>
</symbol>
<symbol overflow="visible" id="glyph0-6">
<path style="stroke:none;" d="M 8.5625 -16.953125 C 3.9375 -16.953125 1.125 -13.65625 1.125 -8.109375 C 1.125 -2.578125 3.90625 0.71875 8.59375 0.71875 C 13.203125 0.71875 16.046875 -2.578125 16.046875 -7.984375 C 16.046875 -13.6875 13.296875 -16.953125 8.5625 -16.953125 Z M 8.59375 -14.53125 C 11.546875 -14.53125 13.296875 -12.109375 13.296875 -8.015625 C 13.296875 -4.15625 11.484375 -1.703125 8.59375 -1.703125 C 5.65625 -1.703125 3.875 -4.125 3.875 -8.109375 C 3.875 -12.078125 5.65625 -14.53125 8.59375 -14.53125 Z M 8.59375 -14.53125 "/>
</symbol>
<symbol overflow="visible" id="glyph0-7">
<path style="stroke:none;" d="M 2.203125 -16.484375 L 2.203125 0 L 4.84375 0 L 4.84375 -10.34375 C 4.84375 -12.734375 6.578125 -14.65625 8.71875 -14.65625 C 10.65625 -14.65625 11.765625 -13.46875 11.765625 -11.359375 L 11.765625 0 L 14.40625 0 L 14.40625 -10.34375 C 14.40625 -12.734375 16.140625 -14.65625 18.28125 -14.65625 C 20.1875 -14.65625 21.328125 -13.4375 21.328125 -11.359375 L 21.328125 0 L 23.96875 0 L 23.96875 -12.359375 C 23.96875 -15.3125 22.265625 -16.953125 19.1875 -16.953125 C 16.984375 -16.953125 15.65625 -16.296875 14.125 -14.4375 C 13.140625 -16.203125 11.828125 -16.953125 9.6875 -16.953125 C 7.484375 -16.953125 6.03125 -16.140625 4.625 -14.15625 L 4.625 -16.484375 Z M 2.203125 -16.484375 "/>
</symbol>
<symbol overflow="visible" id="glyph0-8">
<path style="stroke:none;" d="M 2.203125 -22.921875 L 2.203125 0 L 4.8125 0 L 4.8125 -9.09375 C 4.8125 -12.453125 6.578125 -14.65625 9.28125 -14.65625 C 10.125 -14.65625 10.984375 -14.375 11.609375 -13.90625 C 12.359375 -13.375 12.671875 -12.578125 12.671875 -11.421875 L 12.671875 0 L 15.28125 0 L 15.28125 -12.453125 C 15.28125 -15.21875 13.296875 -16.953125 10.09375 -16.953125 C 7.765625 -16.953125 6.359375 -16.234375 4.8125 -14.21875 L 4.8125 -22.921875 Z M 2.203125 -22.921875 "/>
</symbol>
<symbol overflow="visible" id="glyph0-9">
<path style="stroke:none;" d="M 16.140625 -7.359375 C 16.140625 -9.875 15.953125 -11.390625 15.46875 -12.609375 C 14.40625 -15.3125 11.890625 -16.953125 8.8125 -16.953125 C 4.21875 -16.953125 1.265625 -13.4375 1.265625 -8.015625 C 1.265625 -2.609375 4.125 0.71875 8.75 0.71875 C 12.515625 0.71875 15.125 -1.421875 15.796875 -5 L 13.140625 -5 C 12.421875 -2.828125 10.953125 -1.703125 8.84375 -1.703125 C 7.171875 -1.703125 5.75 -2.453125 4.875 -3.84375 C 4.25 -4.78125 4.03125 -5.71875 4 -7.359375 Z M 4.0625 -9.5 C 4.28125 -12.546875 6.140625 -14.53125 8.78125 -14.53125 C 11.359375 -14.53125 13.34375 -12.390625 13.34375 -9.6875 C 13.34375 -9.625 13.34375 -9.5625 13.296875 -9.5 Z M 4.0625 -9.5 "/>
</symbol>
<symbol overflow="visible" id="glyph0-10">
<path style="stroke:none;" d="M 5.4375 -22.921875 L 2.515625 -22.921875 L 2.515625 0 L 16.765625 0 L 16.765625 -2.578125 L 5.4375 -2.578125 Z M 5.4375 -22.921875 "/>
</symbol>
<symbol overflow="visible" id="glyph0-11">
<path style="stroke:none;" d="M 4.71875 -16.484375 L 2.109375 -16.484375 L 2.109375 0 L 4.71875 0 Z M 4.71875 -22.921875 L 2.078125 -22.921875 L 2.078125 -19.625 L 4.71875 -19.625 Z M 4.71875 -22.921875 "/>
</symbol>
<symbol overflow="visible" id="glyph0-12">
<path style="stroke:none;" d="M 2.203125 -16.484375 L 2.203125 0 L 4.84375 0 L 4.84375 -9.09375 C 4.84375 -12.453125 6.609375 -14.65625 9.3125 -14.65625 C 11.390625 -14.65625 12.703125 -13.40625 12.703125 -11.421875 L 12.703125 0 L 15.3125 0 L 15.3125 -12.453125 C 15.3125 -15.1875 13.265625 -16.953125 10.09375 -16.953125 C 7.640625 -16.953125 6.078125 -16.015625 4.625 -13.71875 L 4.625 -16.484375 Z M 2.203125 -16.484375 "/>
</symbol>
<symbol overflow="visible" id="glyph0-13">
<path style="stroke:none;" d="M 4.4375 -22.921875 L 1.828125 -22.921875 L 1.828125 0 L 4.4375 0 L 4.4375 -6.421875 L 6.984375 -8.9375 L 12.546875 0 L 15.796875 0 L 9.0625 -10.78125 L 14.78125 -16.484375 L 11.421875 -16.484375 L 4.4375 -9.5 Z M 4.4375 -22.921875 "/>
</symbol>
<symbol overflow="visible" id="glyph0-14">
<path style="stroke:none;" d="M 12.203125 -16.484375 L 7.640625 -3.65625 L 3.421875 -16.484375 L 0.625 -16.484375 L 6.203125 0.0625 L 5.1875 2.671875 C 4.78125 3.84375 4.1875 4.28125 3.078125 4.28125 C 2.703125 4.28125 2.265625 4.21875 1.703125 4.09375 L 1.703125 6.453125 C 2.234375 6.734375 2.765625 6.859375 3.453125 6.859375 C 4.3125 6.859375 5.21875 6.578125 5.90625 6.078125 C 6.734375 5.46875 7.203125 4.78125 7.703125 3.453125 L 15.03125 -16.484375 Z M 12.203125 -16.484375 "/>
</symbol>
<symbol overflow="visible" id="glyph0-15">
<path style="stroke:none;" d="M 6.109375 -22.921875 L 3.140625 -22.921875 L 3.140625 0 L 6.109375 0 Z M 6.109375 -22.921875 "/>
</symbol>
<symbol overflow="visible" id="glyph0-16">
<path style="stroke:none;" d="M 11.140625 -20.34375 L 18.65625 -20.34375 L 18.65625 -22.921875 L 0.65625 -22.921875 L 0.65625 -20.34375 L 8.203125 -20.34375 L 8.203125 0 L 11.140625 0 Z M 11.140625 -20.34375 "/>
</symbol>
<symbol overflow="visible" id="glyph0-17">
<path style="stroke:none;" d="M 13.78125 -11.890625 C 13.75 -15.125 11.609375 -16.953125 7.796875 -16.953125 C 3.96875 -16.953125 1.484375 -14.96875 1.484375 -11.921875 C 1.484375 -9.34375 2.796875 -8.109375 6.703125 -7.171875 L 9.15625 -6.578125 C 10.984375 -6.140625 11.703125 -5.46875 11.703125 -4.28125 C 11.703125 -2.734375 10.15625 -1.703125 7.859375 -1.703125 C 6.453125 -1.703125 5.25 -2.109375 4.59375 -2.796875 C 4.1875 -3.265625 4 -3.75 3.84375 -4.90625 L 1.0625 -4.90625 C 1.1875 -1.09375 3.328125 0.71875 7.640625 0.71875 C 11.796875 0.71875 14.4375 -1.328125 14.4375 -4.5 C 14.4375 -6.953125 13.046875 -8.296875 9.78125 -9.09375 L 7.265625 -9.6875 C 5.125 -10.1875 4.21875 -10.875 4.21875 -12.046875 C 4.21875 -13.5625 5.5625 -14.53125 7.703125 -14.53125 C 9.8125 -14.53125 10.953125 -13.625 11.015625 -11.890625 Z M 13.78125 -11.890625 "/>
</symbol>
<symbol overflow="visible" id="glyph0-18">
<path style="stroke:none;" d="M 1.703125 6.859375 L 4.34375 6.859375 L 4.34375 -1.734375 C 5.71875 -0.03125 7.265625 0.71875 9.40625 0.71875 C 13.65625 0.71875 16.453125 -2.703125 16.453125 -7.953125 C 16.453125 -13.5 13.75 -16.953125 9.375 -16.953125 C 7.140625 -16.953125 5.34375 -15.953125 4.125 -14 L 4.125 -16.484375 L 1.703125 -16.484375 Z M 8.9375 -14.5 C 11.828125 -14.5 13.71875 -11.953125 13.71875 -8.015625 C 13.71875 -4.28125 11.796875 -1.734375 8.9375 -1.734375 C 6.171875 -1.734375 4.34375 -4.25 4.34375 -8.109375 C 4.34375 -11.984375 6.171875 -14.5 8.9375 -14.5 Z M 8.9375 -14.5 "/>
</symbol>
<symbol overflow="visible" id="glyph0-19">
<path style="stroke:none;" d="M 14.90625 -6.890625 L 17.265625 0 L 20.53125 0 L 12.484375 -22.921875 L 8.71875 -22.921875 L 0.53125 0 L 3.65625 0 L 6.078125 -6.890625 Z M 14.09375 -9.34375 L 6.796875 -9.34375 L 10.5625 -19.78125 Z M 14.09375 -9.34375 "/>
</symbol>
<symbol overflow="visible" id="glyph0-20">
<path style="stroke:none;" d="M 4.78125 -22.921875 L 2.140625 -22.921875 L 2.140625 0 L 4.78125 0 Z M 4.78125 -22.921875 "/>
</symbol>
<symbol overflow="visible" id="glyph0-21">
<path style="stroke:none;" d="M 14.8125 -10.953125 C 14.6875 -12.546875 14.34375 -13.59375 13.71875 -14.5 C 12.578125 -16.046875 10.59375 -16.953125 8.296875 -16.953125 C 3.875 -16.953125 0.96875 -13.4375 0.96875 -7.953125 C 0.96875 -2.640625 3.8125 0.71875 8.265625 0.71875 C 12.203125 0.71875 14.6875 -1.640625 15 -5.65625 L 12.359375 -5.65625 C 11.921875 -3.015625 10.5625 -1.703125 8.328125 -1.703125 C 5.4375 -1.703125 3.71875 -4.0625 3.71875 -7.953125 C 3.71875 -12.078125 5.40625 -14.53125 8.265625 -14.53125 C 10.46875 -14.53125 11.859375 -13.234375 12.171875 -10.953125 Z M 14.8125 -10.953125 "/>
</symbol>
<symbol overflow="visible" id="glyph0-22">
<path style="stroke:none;" d="M 7.421875 -22.921875 C 4.28125 -18.8125 2.296875 -13.078125 2.296875 -8.140625 C 2.296875 -3.171875 4.28125 2.546875 7.421875 6.671875 L 9.15625 6.671875 C 6.390625 2.171875 4.84375 -3.109375 4.84375 -8.140625 C 4.84375 -13.140625 6.390625 -18.46875 9.15625 -22.921875 Z M 7.421875 -22.921875 "/>
</symbol>
<symbol overflow="visible" id="glyph0-23">
<path style="stroke:none;" d="M 12.953125 -16.484375 L 12.953125 -14.09375 C 11.640625 -16.046875 10.03125 -16.953125 7.921875 -16.953125 C 3.75 -16.953125 0.90625 -13.296875 0.90625 -7.953125 C 0.90625 -5.25 1.640625 -3.046875 2.984375 -1.484375 C 4.21875 -0.09375 5.96875 0.71875 7.703125 0.71875 C 9.78125 0.71875 11.234375 -0.15625 12.703125 -2.234375 L 12.703125 -1.390625 C 12.703125 0.84375 12.421875 2.203125 11.765625 3.109375 C 11.078125 4.09375 9.71875 4.65625 8.109375 4.65625 C 6.921875 4.65625 5.84375 4.34375 5.125 3.78125 C 4.53125 3.296875 4.28125 2.859375 4.125 1.890625 L 1.453125 1.890625 C 1.734375 5 4.15625 6.859375 8.015625 6.859375 C 10.46875 6.859375 12.578125 6.078125 13.65625 4.75 C 14.90625 3.234375 15.375 1.15625 15.375 -2.703125 L 15.375 -16.484375 Z M 8.203125 -14.53125 C 11.046875 -14.53125 12.703125 -12.140625 12.703125 -8.015625 C 12.703125 -4.09375 11.015625 -1.703125 8.234375 -1.703125 C 5.375 -1.703125 3.65625 -4.125 3.65625 -8.109375 C 3.65625 -12.078125 5.40625 -14.53125 8.203125 -14.53125 Z M 8.203125 -14.53125 "/>
</symbol>
<symbol overflow="visible" id="glyph0-24">
<path style="stroke:none;" d="M 2.921875 6.671875 C 6.078125 2.546875 8.046875 -3.171875 8.046875 -8.109375 C 8.046875 -13.078125 6.078125 -18.8125 2.921875 -22.921875 L 1.1875 -22.921875 C 3.96875 -18.4375 5.5 -13.140625 5.5 -8.109375 C 5.5 -3.109375 3.96875 2.203125 1.1875 6.671875 Z M 2.921875 6.671875 "/>
</symbol>
</g>
</defs>
<g id="surface90634">
<path style="fill-rule:evenodd;fill:rgb(78.1%,78.1%,78.1%);fill-opacity:1;stroke-width:1.2;stroke-linecap:butt;stroke-linejoin:round;stroke:rgb(0%,0%,0%);stroke-opacity:1;stroke-miterlimit:10;" d="M 544.000349 635.999111 L 544.000349 596.000433 L 584.000809 596.000433 L 584.000809 635.999111 Z M 544.000349 635.999111 " transform="matrix(2.192651,0,0,-2.192651,-7.455012,1533.715212)"/>
<path style="fill-rule:evenodd;fill:rgb(91.8%,92.2%,92.2%);fill-opacity:1;stroke-width:1.2;stroke-linecap:butt;stroke-linejoin:round;stroke:rgb(0%,0%,0%);stroke-opacity:1;stroke-miterlimit:10;" d="M 123.999971 635.999111 L 123.999971 596.000433 L 83.999511 596.000433 L 83.999511 635.999111 Z M 123.999971 635.999111 " transform="matrix(2.192651,0,0,-2.192651,-7.455012,1533.715212)"/>
<path style="fill-rule:evenodd;fill:rgb(85.5%,85.5%,85.5%);fill-opacity:1;stroke-width:1.2;stroke-linecap:butt;stroke-linejoin:round;stroke:rgb(0%,0%,0%);stroke-opacity:1;stroke-miterlimit:10;" d="M 83.999511 635.999111 L 83.999511 596.000433 L 44.000832 596.000433 L 44.000832 635.999111 Z M 83.999511 635.999111 " transform="matrix(2.192651,0,0,-2.192651,-7.455012,1533.715212)"/>
<path style="fill-rule:evenodd;fill:rgb(78.1%,78.1%,78.1%);fill-opacity:1;stroke-width:1.2;stroke-linecap:butt;stroke-linejoin:round;stroke:rgb(0%,0%,0%);stroke-opacity:1;stroke-miterlimit:10;" d="M 44.000832 635.999111 L 44.000832 596.000433 L 4.000372 596.000433 L 4.000372 635.999111 Z M 44.000832 635.999111 " transform="matrix(2.192651,0,0,-2.192651,-7.455012,1533.715212)"/>
<path style="fill-rule:evenodd;fill:rgb(97%,97%,98%);fill-opacity:1;stroke-width:1.2;stroke-linecap:butt;stroke-linejoin:round;stroke:rgb(0%,0%,0%);stroke-opacity:1;stroke-miterlimit:10;" d="M 123.999971 635.999111 L 123.999971 596.000433 L 544.000349 596.000433 L 544.000349 635.999111 Z M 123.999971 635.999111 " transform="matrix(2.192651,0,0,-2.192651,-7.455012,1533.715212)"/>
<g style="fill:rgb(0%,0%,0%);fill-opacity:1;">
  <use xlink:href="#glyph0-1" x="395.992691" y="25.171628"/>
  <use xlink:href="#glyph0-2" x="418.70407" y="25.171628"/>
  <use xlink:href="#glyph0-3" x="436.193719" y="25.171628"/>
  <use xlink:href="#glyph0-2" x="444.938543" y="25.171628"/>
  <use xlink:href="#glyph0-4" x="471.173017" y="25.171628"/>
  <use xlink:href="#glyph0-5" x="479.917841" y="25.171628"/>
  <use xlink:href="#glyph0-6" x="490.392757" y="25.171628"/>
  <use xlink:href="#glyph0-7" x="507.882406" y="25.171628"/>
  <use xlink:href="#glyph0-3" x="542.830248" y="25.171628"/>
  <use xlink:href="#glyph0-8" x="551.575073" y="25.171628"/>
  <use xlink:href="#glyph0-9" x="569.064722" y="25.171628"/>
  <use xlink:href="#glyph0-10" x="595.299196" y="25.171628"/>
  <use xlink:href="#glyph0-11" x="612.788845" y="25.171628"/>
  <use xlink:href="#glyph0-12" x="619.772122" y="25.171628"/>
  <use xlink:href="#glyph0-13" x="637.261771" y="25.171628"/>
  <use xlink:href="#glyph0-10" x="661.734697" y="25.171628"/>
  <use xlink:href="#glyph0-2" x="679.224346" y="25.171628"/>
  <use xlink:href="#glyph0-14" x="695.770309" y="25.171628"/>
  <use xlink:href="#glyph0-9" x="710.869287" y="25.171628"/>
  <use xlink:href="#glyph0-5" x="728.358936" y="25.171628"/>
</g>
<g style="fill:rgb(0%,0%,0%);fill-opacity:1;">
  <use xlink:href="#glyph0-1" x="395.992691" y="69.02464"/>
  <use xlink:href="#glyph0-2" x="418.70407" y="69.02464"/>
  <use xlink:href="#glyph0-3" x="436.193719" y="69.02464"/>
  <use xlink:href="#glyph0-2" x="444.938543" y="69.02464"/>
  <use xlink:href="#glyph0-4" x="471.173017" y="69.02464"/>
  <use xlink:href="#glyph0-5" x="479.917841" y="69.02464"/>
  <use xlink:href="#glyph0-6" x="490.392757" y="69.02464"/>
  <use xlink:href="#glyph0-7" x="507.882406" y="69.02464"/>
  <use xlink:href="#glyph0-3" x="542.830248" y="69.02464"/>
  <use xlink:href="#glyph0-8" x="551.575073" y="69.02464"/>
  <use xlink:href="#glyph0-9" x="569.064722" y="69.02464"/>
  <use xlink:href="#glyph0-15" x="595.299196" y="69.02464"/>
  <use xlink:href="#glyph0-12" x="604.04402" y="69.02464"/>
  <use xlink:href="#glyph0-3" x="621.533669" y="69.02464"/>
  <use xlink:href="#glyph0-9" x="630.278494" y="69.02464"/>
  <use xlink:href="#glyph0-5" x="647.768143" y="69.02464"/>
  <use xlink:href="#glyph0-12" x="659.029464" y="69.02464"/>
  <use xlink:href="#glyph0-9" x="676.519113" y="69.02464"/>
  <use xlink:href="#glyph0-3" x="694.008762" y="69.02464"/>
  <use xlink:href="#glyph0-10" x="711.498411" y="69.02464"/>
  <use xlink:href="#glyph0-2" x="728.98806" y="69.02464"/>
  <use xlink:href="#glyph0-14" x="745.534023" y="69.02464"/>
  <use xlink:href="#glyph0-9" x="760.633001" y="69.02464"/>
  <use xlink:href="#glyph0-5" x="778.12265" y="69.02464"/>
</g>
<g style="fill:rgb(0%,0%,0%);fill-opacity:1;">
  <use xlink:href="#glyph0-1" x="395.992691" y="112.877651"/>
  <use xlink:href="#glyph0-2" x="418.70407" y="112.877651"/>
  <use xlink:href="#glyph0-3" x="436.193719" y="112.877651"/>
  <use xlink:href="#glyph0-2" x="444.938543" y="112.877651"/>
  <use xlink:href="#glyph0-4" x="471.173017" y="112.877651"/>
  <use xlink:href="#glyph0-5" x="479.917841" y="112.877651"/>
  <use xlink:href="#glyph0-6" x="490.392757" y="112.877651"/>
  <use xlink:href="#glyph0-7" x="507.882406" y="112.877651"/>
  <use xlink:href="#glyph0-3" x="542.830248" y="112.877651"/>
  <use xlink:href="#glyph0-8" x="551.575073" y="112.877651"/>
  <use xlink:href="#glyph0-9" x="569.064722" y="112.877651"/>
  <use xlink:href="#glyph0-16" x="595.299196" y="112.877651"/>
  <use xlink:href="#glyph0-5" x="610.744191" y="112.877651"/>
  <use xlink:href="#glyph0-2" x="620.904545" y="112.877651"/>
  <use xlink:href="#glyph0-12" x="638.394194" y="112.877651"/>
  <use xlink:href="#glyph0-17" x="655.883843" y="112.877651"/>
  <use xlink:href="#glyph0-18" x="671.611945" y="112.877651"/>
  <use xlink:href="#glyph0-6" x="689.101594" y="112.877651"/>
  <use xlink:href="#glyph0-5" x="706.591243" y="112.877651"/>
  <use xlink:href="#glyph0-3" x="718.324407" y="112.877651"/>
  <use xlink:href="#glyph0-10" x="735.814056" y="112.877651"/>
  <use xlink:href="#glyph0-2" x="753.303705" y="112.877651"/>
  <use xlink:href="#glyph0-14" x="769.849668" y="112.877651"/>
  <use xlink:href="#glyph0-9" x="784.948646" y="112.877651"/>
  <use xlink:href="#glyph0-5" x="802.438295" y="112.877651"/>
</g>
<g style="fill:rgb(0%,0%,0%);fill-opacity:1;">
  <use xlink:href="#glyph0-1" x="395.992691" y="191.808685"/>
  <use xlink:href="#glyph0-2" x="418.70407" y="191.808685"/>
  <use xlink:href="#glyph0-3" x="436.193719" y="191.808685"/>
  <use xlink:href="#glyph0-2" x="444.938543" y="191.808685"/>
  <use xlink:href="#glyph0-4" x="471.173017" y="191.808685"/>
  <use xlink:href="#glyph0-5" x="479.917841" y="191.808685"/>
  <use xlink:href="#glyph0-6" x="490.392757" y="191.808685"/>
  <use xlink:href="#glyph0-7" x="507.882406" y="191.808685"/>
  <use xlink:href="#glyph0-3" x="542.830248" y="191.808685"/>
  <use xlink:href="#glyph0-8" x="551.575073" y="191.808685"/>
  <use xlink:href="#glyph0-9" x="569.064722" y="191.808685"/>
  <use xlink:href="#glyph0-19" x="595.299196" y="191.808685"/>
  <use xlink:href="#glyph0-18" x="616.280483" y="191.808685"/>
  <use xlink:href="#glyph0-18" x="633.770132" y="191.808685"/>
  <use xlink:href="#glyph0-20" x="651.259781" y="191.808685"/>
  <use xlink:href="#glyph0-11" x="658.243059" y="191.808685"/>
  <use xlink:href="#glyph0-21" x="665.226336" y="191.808685"/>
  <use xlink:href="#glyph0-2" x="680.954437" y="191.808685"/>
  <use xlink:href="#glyph0-3" x="698.444087" y="191.808685"/>
  <use xlink:href="#glyph0-11" x="707.188911" y="191.808685"/>
  <use xlink:href="#glyph0-6" x="714.172188" y="191.808685"/>
  <use xlink:href="#glyph0-12" x="731.661837" y="191.808685"/>
  <use xlink:href="#glyph0-10" x="757.896311" y="191.808685"/>
  <use xlink:href="#glyph0-2" x="775.38596" y="191.808685"/>
  <use xlink:href="#glyph0-14" x="791.931923" y="191.808685"/>
  <use xlink:href="#glyph0-9" x="807.030901" y="191.808685"/>
  <use xlink:href="#glyph0-5" x="824.52055" y="191.808685"/>
  <use xlink:href="#glyph0-22" x="843.74029" y="191.808685"/>
  <use xlink:href="#glyph0-7" x="854.215206" y="191.808685"/>
  <use xlink:href="#glyph0-9" x="880.418223" y="191.808685"/>
  <use xlink:href="#glyph0-17" x="897.907873" y="191.808685"/>
  <use xlink:href="#glyph0-17" x="913.635974" y="191.808685"/>
  <use xlink:href="#glyph0-2" x="929.364076" y="191.808685"/>
  <use xlink:href="#glyph0-23" x="946.853725" y="191.808685"/>
  <use xlink:href="#glyph0-9" x="964.343374" y="191.808685"/>
  <use xlink:href="#glyph0-24" x="981.833023" y="191.808685"/>
</g>
<path style="fill:none;stroke-width:1.2;stroke-linecap:butt;stroke-linejoin:round;stroke:rgb(0%,0%,0%);stroke-opacity:1;stroke-miterlimit:10;" d="M 104.000632 635.999111 L 104.000632 652.00072 L 171.999454 652.00072 " transform="matrix(2.192651,0,0,-2.192651,-7.455012,1533.715212)"/>
<path style="fill:none;stroke-width:1.2;stroke-linecap:butt;stroke-linejoin:round;stroke:rgb(0%,0%,0%);stroke-opacity:1;stroke-miterlimit:10;" d="M 64.000172 635.999111 L 64.000172 672.00006 L 171.999454 672.00006 " transform="matrix(2.192651,0,0,-2.192651,-7.455012,1533.715212)"/>
<path style="fill:none;stroke-width:1.2;stroke-linecap:butt;stroke-linejoin:round;stroke:rgb(0%,0%,0%);stroke-opacity:1;stroke-miterlimit:10;" d="M 23.999711 635.999111 L 23.999711 691.999399 L 171.999454 691.999399 " transform="matrix(2.192651,0,0,-2.192651,-7.455012,1533.715212)"/>
<path style="fill:none;stroke-width:1.2;stroke-linecap:butt;stroke-linejoin:round;stroke:rgb(0%,0%,0%);stroke-opacity:1;stroke-miterlimit:10;" d="M 563.999688 635.999111 L 563.999688 691.999399 " transform="matrix(2.192651,0,0,-2.192651,-7.455012,1533.715212)"/>
<path style="fill:none;stroke-width:1.2;stroke-linecap:butt;stroke-linejoin:round;stroke:rgb(0%,0%,0%);stroke-opacity:1;stroke-miterlimit:10;" d="M 563.999688 691.999399 L 363.999169 691.999399 " transform="matrix(2.192651,0,0,-2.192651,-7.455012,1533.715212)"/>
</g>
</svg>
